<svg width="57" height="40" viewBox="0 0 57 40" fill="none" xmlns="http://www.w3.org/2000/svg">
<path fill-rule="evenodd" clip-rule="evenodd" d="M56.2969 0.694257C55.3619 -0.231419 53.843 -0.231419 52.9079 0.694257L18.999 34.2956L4.09029 19.6339C3.15523 18.7083 1.63635 18.7083 0.701294 19.6339C-0.233765 20.5596 -0.233765 22.0582 0.701294 22.9815L17.3116 39.3146C18.2372 40.2285 19.7774 40.2285 20.703 39.3146L56.2969 4.04184C57.2344 3.11854 57.2344 1.61757 56.2969 0.694257C55.3619 -0.231419 57.2344 1.61757 56.2969 0.694257Z" fill="#0BD97D"/>
</svg>
